{
  "items": [
      {
        "id": 1,
        "name": "name of item 1",
        "url": "../src/img/foto.jpg",
        "description": "description of item 1",
        "price": 8
    },
    {
        "id": 2,
        "name": "name of item 2",
        "url": "../src/img/foto.jpg",
        "description": "description of item 2",
        "price": 13
    },
    {
        "id": 3,
        "name": "name of item 3",
        "url": "../src/img/foto.jpg",
        "description": "description of item 3",
        "price": 9
    },
      {
        "id": 4,
        "name": "name of item 4",
        "url": "../src/img/foto.jpg",
        "description": "description of item 4",
        "price": 11
    },
     {
        "id": 5,
        "name": "name of item 5",
        "url": "../src/img/foto.jpg",
        "description": "description of item 5",
        "price": 14
    },
     {
        "id": 6,
        "name": "name of item 6",
        "url": "../src/img/foto.jpg",
        "description": "description of item 6",
        "price": 12
    },
      {
        "id": 7,
        "name": "name of item 7",
        "url": "../src/img/foto.jpg",
        "description": "description of item 7",
        "price": 10
    }
  ]
}